([('rest.exe',
   'C:\\Users\\DexWiller\\Projects\\pdfocrtickets\\build\\rest\\rest.exe',
   'EXECUTABLE'),
  ('python38.dll',
   'C:\\Users\\DexWiller\\AppData\\Local\\Programs\\Python\\Python38\\python38.dll',
   'BINARY'),
  ('VCRUNTIME140.dll',
   'C:\\Users\\DexWiller\\AppData\\Local\\Programs\\Python\\Python38\\VCRUNTIME140.dll',
   'BINARY'),
  ('libopenblas.NOIJJG62EMASZI6NYURL6JBKM4EVBGM7.gfortran-win_amd64.dll',
   'C:\\Users\\DexWiller\\Projects\\pdfocrtickets\\venv\\lib\\site-packages\\numpy\\.libs\\libopenblas.NOIJJG62EMASZI6NYURL6JBKM4EVBGM7.gfortran-win_amd64.dll',
   'BINARY'),
  ('cv2\\opencv_videoio_ffmpeg440_64.dll',
   'C:\\Users\\DexWiller\\Projects\\pdfocrtickets\\venv\\lib\\site-packages\\cv2\\opencv_videoio_ffmpeg440_64.dll',
   'BINARY'),
  ('_ctypes',
   'C:\\Users\\DexWiller\\AppData\\Local\\Programs\\Python\\Python38\\DLLs\\_ctypes.pyd',
   'EXTENSION'),
  ('_lzma',
   'C:\\Users\\DexWiller\\AppData\\Local\\Programs\\Python\\Python38\\DLLs\\_lzma.pyd',
   'EXTENSION'),
  ('_bz2',
   'C:\\Users\\DexWiller\\AppData\\Local\\Programs\\Python\\Python38\\DLLs\\_bz2.pyd',
   'EXTENSION'),
  ('select',
   'C:\\Users\\DexWiller\\AppData\\Local\\Programs\\Python\\Python38\\DLLs\\select.pyd',
   'EXTENSION'),
  ('_socket',
   'C:\\Users\\DexWiller\\AppData\\Local\\Programs\\Python\\Python38\\DLLs\\_socket.pyd',
   'EXTENSION'),
  ('_hashlib',
   'C:\\Users\\DexWiller\\AppData\\Local\\Programs\\Python\\Python38\\DLLs\\_hashlib.pyd',
   'EXTENSION'),
  ('_queue',
   'C:\\Users\\DexWiller\\AppData\\Local\\Programs\\Python\\Python38\\DLLs\\_queue.pyd',
   'EXTENSION'),
  ('_multiprocessing',
   'C:\\Users\\DexWiller\\AppData\\Local\\Programs\\Python\\Python38\\DLLs\\_multiprocessing.pyd',
   'EXTENSION'),
  ('pyexpat',
   'C:\\Users\\DexWiller\\AppData\\Local\\Programs\\Python\\Python38\\DLLs\\pyexpat.pyd',
   'EXTENSION'),
  ('_ssl',
   'C:\\Users\\DexWiller\\AppData\\Local\\Programs\\Python\\Python38\\DLLs\\_ssl.pyd',
   'EXTENSION'),
  ('_decimal',
   'C:\\Users\\DexWiller\\AppData\\Local\\Programs\\Python\\Python38\\DLLs\\_decimal.pyd',
   'EXTENSION'),
  ('_msi',
   'C:\\Users\\DexWiller\\AppData\\Local\\Programs\\Python\\Python38\\DLLs\\_msi.pyd',
   'EXTENSION'),
  ('_overlapped',
   'C:\\Users\\DexWiller\\AppData\\Local\\Programs\\Python\\Python38\\DLLs\\_overlapped.pyd',
   'EXTENSION'),
  ('_asyncio',
   'C:\\Users\\DexWiller\\AppData\\Local\\Programs\\Python\\Python38\\DLLs\\_asyncio.pyd',
   'EXTENSION'),
  ('markupsafe._speedups',
   'C:\\Users\\DexWiller\\Projects\\pdfocrtickets\\venv\\lib\\site-packages\\markupsafe\\_speedups.cp38-win_amd64.pyd',
   'EXTENSION'),
  ('unicodedata',
   'C:\\Users\\DexWiller\\AppData\\Local\\Programs\\Python\\Python38\\DLLs\\unicodedata.pyd',
   'EXTENSION'),
  ('_cffi_backend',
   'C:\\Users\\DexWiller\\Projects\\pdfocrtickets\\venv\\lib\\site-packages\\_cffi_backend.cp38-win_amd64.pyd',
   'EXTENSION'),
  ('cryptography.hazmat.bindings._openssl',
   'C:\\Users\\DexWiller\\Projects\\pdfocrtickets\\venv\\lib\\site-packages\\cryptography\\hazmat\\bindings\\_openssl.pyd',
   'EXTENSION'),
  ('bcrypt._bcrypt',
   'C:\\Users\\DexWiller\\Projects\\pdfocrtickets\\venv\\lib\\site-packages\\bcrypt\\_bcrypt.pyd',
   'EXTENSION'),
  ('nacl._sodium',
   'C:\\Users\\DexWiller\\Projects\\pdfocrtickets\\venv\\lib\\site-packages\\nacl\\_sodium.cp38-win_amd64.pyd',
   'EXTENSION'),
  ('pymssql',
   'C:\\Users\\DexWiller\\Projects\\pdfocrtickets\\venv\\lib\\site-packages\\pymssql.cp38-win_amd64.pyd',
   'EXTENSION'),
  ('_mssql',
   'C:\\Users\\DexWiller\\Projects\\pdfocrtickets\\venv\\lib\\site-packages\\_mssql.cp38-win_amd64.pyd',
   'EXTENSION'),
  ('numpy.core._multiarray_tests',
   'C:\\Users\\DexWiller\\Projects\\pdfocrtickets\\venv\\lib\\site-packages\\numpy\\core\\_multiarray_tests.cp38-win_amd64.pyd',
   'EXTENSION'),
  ('numpy.core._multiarray_umath',
   'C:\\Users\\DexWiller\\Projects\\pdfocrtickets\\venv\\lib\\site-packages\\numpy\\core\\_multiarray_umath.cp38-win_amd64.pyd',
   'EXTENSION'),
  ('numpy.linalg.lapack_lite',
   'C:\\Users\\DexWiller\\Projects\\pdfocrtickets\\venv\\lib\\site-packages\\numpy\\linalg\\lapack_lite.cp38-win_amd64.pyd',
   'EXTENSION'),
  ('numpy.random.mtrand',
   'C:\\Users\\DexWiller\\Projects\\pdfocrtickets\\venv\\lib\\site-packages\\numpy\\random\\mtrand.cp38-win_amd64.pyd',
   'EXTENSION'),
  ('numpy.random._sfc64',
   'C:\\Users\\DexWiller\\Projects\\pdfocrtickets\\venv\\lib\\site-packages\\numpy\\random\\_sfc64.cp38-win_amd64.pyd',
   'EXTENSION'),
  ('numpy.random._philox',
   'C:\\Users\\DexWiller\\Projects\\pdfocrtickets\\venv\\lib\\site-packages\\numpy\\random\\_philox.cp38-win_amd64.pyd',
   'EXTENSION'),
  ('numpy.random._pcg64',
   'C:\\Users\\DexWiller\\Projects\\pdfocrtickets\\venv\\lib\\site-packages\\numpy\\random\\_pcg64.cp38-win_amd64.pyd',
   'EXTENSION'),
  ('numpy.random._mt19937',
   'C:\\Users\\DexWiller\\Projects\\pdfocrtickets\\venv\\lib\\site-packages\\numpy\\random\\_mt19937.cp38-win_amd64.pyd',
   'EXTENSION'),
  ('numpy.random.bit_generator',
   'C:\\Users\\DexWiller\\Projects\\pdfocrtickets\\venv\\lib\\site-packages\\numpy\\random\\bit_generator.cp38-win_amd64.pyd',
   'EXTENSION'),
  ('numpy.random._generator',
   'C:\\Users\\DexWiller\\Projects\\pdfocrtickets\\venv\\lib\\site-packages\\numpy\\random\\_generator.cp38-win_amd64.pyd',
   'EXTENSION'),
  ('numpy.random._bounded_integers',
   'C:\\Users\\DexWiller\\Projects\\pdfocrtickets\\venv\\lib\\site-packages\\numpy\\random\\_bounded_integers.cp38-win_amd64.pyd',
   'EXTENSION'),
  ('numpy.random._common',
   'C:\\Users\\DexWiller\\Projects\\pdfocrtickets\\venv\\lib\\site-packages\\numpy\\random\\_common.cp38-win_amd64.pyd',
   'EXTENSION'),
  ('numpy.fft._pocketfft_internal',
   'C:\\Users\\DexWiller\\Projects\\pdfocrtickets\\venv\\lib\\site-packages\\numpy\\fft\\_pocketfft_internal.cp38-win_amd64.pyd',
   'EXTENSION'),
  ('numpy.linalg._umath_linalg',
   'C:\\Users\\DexWiller\\Projects\\pdfocrtickets\\venv\\lib\\site-packages\\numpy\\linalg\\_umath_linalg.cp38-win_amd64.pyd',
   'EXTENSION'),
  ('fitz._fitz',
   'C:\\Users\\DexWiller\\Projects\\pdfocrtickets\\venv\\lib\\site-packages\\fitz\\_fitz.pyd',
   'EXTENSION'),
  ('cv2.cv2',
   'C:\\Users\\DexWiller\\Projects\\pdfocrtickets\\venv\\lib\\site-packages\\cv2\\cv2.cp38-win_amd64.pyd',
   'EXTENSION'),
  ('PIL._webp',
   'C:\\Users\\DexWiller\\Projects\\pdfocrtickets\\venv\\lib\\site-packages\\PIL\\_webp.cp38-win_amd64.pyd',
   'EXTENSION'),
  ('PIL._imagingtk',
   'C:\\Users\\DexWiller\\Projects\\pdfocrtickets\\venv\\lib\\site-packages\\PIL\\_imagingtk.cp38-win_amd64.pyd',
   'EXTENSION'),
  ('PIL._imaging',
   'C:\\Users\\DexWiller\\Projects\\pdfocrtickets\\venv\\lib\\site-packages\\PIL\\_imaging.cp38-win_amd64.pyd',
   'EXTENSION'),
  ('_elementtree',
   'C:\\Users\\DexWiller\\AppData\\Local\\Programs\\Python\\Python38\\DLLs\\_elementtree.pyd',
   'EXTENSION'),
  ('libffi-7.dll',
   'C:\\Users\\DexWiller\\AppData\\Local\\Programs\\Python\\Python38\\DLLs\\libffi-7.dll',
   'BINARY'),
  ('libcrypto-1_1.dll',
   'C:\\Users\\DexWiller\\AppData\\Local\\Programs\\Python\\Python38\\DLLs\\libcrypto-1_1.dll',
   'BINARY'),
  ('libssl-1_1.dll',
   'C:\\Users\\DexWiller\\AppData\\Local\\Programs\\Python\\Python38\\DLLs\\libssl-1_1.dll',
   'BINARY'),
  ('python3.dll',
   'C:\\Users\\DexWiller\\AppData\\Local\\Programs\\Python\\Python38\\python3.dll',
   'BINARY'),
  ('base_library.zip',
   'C:\\Users\\DexWiller\\Projects\\pdfocrtickets\\build\\rest\\base_library.zip',
   'DATA'),
  ('cryptography-3.1.1.dist-info\\RECORD',
   'c:\\users\\dexwiller\\projects\\pdfocrtickets\\venv\\lib\\site-packages\\cryptography-3.1.1.dist-info\\RECORD',
   'DATA'),
  ('cv2\\version.py',
   'C:\\Users\\DexWiller\\Projects\\pdfocrtickets\\venv\\lib\\site-packages\\cv2\\version.py',
   'DATA'),
  ('cryptography-3.1.1.dist-info\\AUTHORS.rst',
   'c:\\users\\dexwiller\\projects\\pdfocrtickets\\venv\\lib\\site-packages\\cryptography-3.1.1.dist-info\\AUTHORS.rst',
   'DATA'),
  ('cryptography-3.1.1.dist-info\\WHEEL',
   'c:\\users\\dexwiller\\projects\\pdfocrtickets\\venv\\lib\\site-packages\\cryptography-3.1.1.dist-info\\WHEEL',
   'DATA'),
  ('cv2\\__init__.py',
   'C:\\Users\\DexWiller\\Projects\\pdfocrtickets\\venv\\lib\\site-packages\\cv2\\__init__.py',
   'DATA'),
  ('cryptography-3.1.1.dist-info\\INSTALLER',
   'c:\\users\\dexwiller\\projects\\pdfocrtickets\\venv\\lib\\site-packages\\cryptography-3.1.1.dist-info\\INSTALLER',
   'DATA'),
  ('cryptography-3.1.1.dist-info\\LICENSE',
   'c:\\users\\dexwiller\\projects\\pdfocrtickets\\venv\\lib\\site-packages\\cryptography-3.1.1.dist-info\\LICENSE',
   'DATA'),
  ('cryptography-3.1.1.dist-info\\LICENSE.APACHE',
   'c:\\users\\dexwiller\\projects\\pdfocrtickets\\venv\\lib\\site-packages\\cryptography-3.1.1.dist-info\\LICENSE.APACHE',
   'DATA'),
  ('cryptography-3.1.1.dist-info\\top_level.txt',
   'c:\\users\\dexwiller\\projects\\pdfocrtickets\\venv\\lib\\site-packages\\cryptography-3.1.1.dist-info\\top_level.txt',
   'DATA'),
  ('cryptography-3.1.1.dist-info\\LICENSE.PSF',
   'c:\\users\\dexwiller\\projects\\pdfocrtickets\\venv\\lib\\site-packages\\cryptography-3.1.1.dist-info\\LICENSE.PSF',
   'DATA'),
  ('cryptography-3.1.1.dist-info\\METADATA',
   'c:\\users\\dexwiller\\projects\\pdfocrtickets\\venv\\lib\\site-packages\\cryptography-3.1.1.dist-info\\METADATA',
   'DATA'),
  ('cv2\\data\\__init__.py',
   'C:\\Users\\DexWiller\\Projects\\pdfocrtickets\\venv\\lib\\site-packages\\cv2\\data\\__init__.py',
   'DATA'),
  ('cryptography-3.1.1.dist-info\\LICENSE.BSD',
   'c:\\users\\dexwiller\\projects\\pdfocrtickets\\venv\\lib\\site-packages\\cryptography-3.1.1.dist-info\\LICENSE.BSD',
   'DATA'),
  ('wheel-0.37.1.dist-info\\top_level.txt',
   'c:\\users\\dexwiller\\projects\\pdfocrtickets\\venv\\lib\\site-packages\\wheel-0.37.1.dist-info\\top_level.txt',
   'DATA'),
  ('wheel-0.37.1.dist-info\\WHEEL',
   'c:\\users\\dexwiller\\projects\\pdfocrtickets\\venv\\lib\\site-packages\\wheel-0.37.1.dist-info\\WHEEL',
   'DATA'),
  ('setuptools-65.5.0.dist-info\\WHEEL',
   'c:\\users\\dexwiller\\projects\\pdfocrtickets\\venv\\lib\\site-packages\\setuptools-65.5.0.dist-info\\WHEEL',
   'DATA'),
  ('setuptools-65.5.0.dist-info\\METADATA',
   'c:\\users\\dexwiller\\projects\\pdfocrtickets\\venv\\lib\\site-packages\\setuptools-65.5.0.dist-info\\METADATA',
   'DATA'),
  ('setuptools-65.5.0.dist-info\\LICENSE',
   'c:\\users\\dexwiller\\projects\\pdfocrtickets\\venv\\lib\\site-packages\\setuptools-65.5.0.dist-info\\LICENSE',
   'DATA'),
  ('setuptools-65.5.0.dist-info\\INSTALLER',
   'c:\\users\\dexwiller\\projects\\pdfocrtickets\\venv\\lib\\site-packages\\setuptools-65.5.0.dist-info\\INSTALLER',
   'DATA'),
  ('setuptools-65.5.0.dist-info\\top_level.txt',
   'c:\\users\\dexwiller\\projects\\pdfocrtickets\\venv\\lib\\site-packages\\setuptools-65.5.0.dist-info\\top_level.txt',
   'DATA'),
  ('wheel-0.37.1.dist-info\\RECORD',
   'c:\\users\\dexwiller\\projects\\pdfocrtickets\\venv\\lib\\site-packages\\wheel-0.37.1.dist-info\\RECORD',
   'DATA'),
  ('wheel-0.37.1.dist-info\\INSTALLER',
   'c:\\users\\dexwiller\\projects\\pdfocrtickets\\venv\\lib\\site-packages\\wheel-0.37.1.dist-info\\INSTALLER',
   'DATA'),
  ('wheel-0.37.1.dist-info\\METADATA',
   'c:\\users\\dexwiller\\projects\\pdfocrtickets\\venv\\lib\\site-packages\\wheel-0.37.1.dist-info\\METADATA',
   'DATA'),
  ('setuptools-65.5.0.dist-info\\RECORD',
   'c:\\users\\dexwiller\\projects\\pdfocrtickets\\venv\\lib\\site-packages\\setuptools-65.5.0.dist-info\\RECORD',
   'DATA'),
  ('wheel-0.37.1.dist-info\\entry_points.txt',
   'c:\\users\\dexwiller\\projects\\pdfocrtickets\\venv\\lib\\site-packages\\wheel-0.37.1.dist-info\\entry_points.txt',
   'DATA'),
  ('setuptools-65.5.0.dist-info\\entry_points.txt',
   'c:\\users\\dexwiller\\projects\\pdfocrtickets\\venv\\lib\\site-packages\\setuptools-65.5.0.dist-info\\entry_points.txt',
   'DATA'),
  ('wheel-0.37.1.dist-info\\LICENSE.txt',
   'c:\\users\\dexwiller\\projects\\pdfocrtickets\\venv\\lib\\site-packages\\wheel-0.37.1.dist-info\\LICENSE.txt',
   'DATA')],)
