('C:\\Users\\DexWiller\\Projects\\pdfocrtickets\\build\\rest\\rest.pkg',
 {'BINARY': 1,
  'DATA': 1,
  'EXECUTABLE': 1,
  'EXTENSION': 1,
  'PYMODULE': 1,
  'PYSOURCE': 1,
  'PYZ': 0,
  'SPLASH': 1},
 [('PYZ-00.pyz',
   'C:\\Users\\DexWiller\\Projects\\pdfocrtickets\\build\\rest\\PYZ-00.pyz',
   'PYZ'),
  ('struct',
   'C:\\Users\\DexWiller\\Projects\\pdfocrtickets\\build\\rest\\localpycs\\struct.pyc',
   'PYMODULE'),
  ('pyimod01_archive',
   'C:\\Users\\DexWiller\\Projects\\pdfocrtickets\\build\\rest\\localpycs\\pyimod01_archive.pyc',
   'PYMODULE'),
  ('pyimod02_importers',
   'C:\\Users\\DexWiller\\Projects\\pdfocrtickets\\build\\rest\\localpycs\\pyimod02_importers.pyc',
   'PYMODULE'),
  ('pyimod03_ctypes',
   'C:\\Users\\DexWiller\\Projects\\pdfocrtickets\\build\\rest\\localpycs\\pyimod03_ctypes.pyc',
   'PYMODULE'),
  ('pyimod04_pywin32',
   'C:\\Users\\DexWiller\\Projects\\pdfocrtickets\\build\\rest\\localpycs\\pyimod04_pywin32.pyc',
   'PYMODULE'),
  ('pyiboot01_bootstrap',
   'C:\\Users\\DexWiller\\Projects\\pdfocrtickets\\venv\\lib\\site-packages\\PyInstaller\\loader\\pyiboot01_bootstrap.py',
   'PYSOURCE'),
  ('pyi_rth_subprocess',
   'C:\\Users\\DexWiller\\Projects\\pdfocrtickets\\venv\\Lib\\site-packages\\PyInstaller\\hooks\\rthooks\\pyi_rth_subprocess.py',
   'PYSOURCE'),
  ('pyi_rth_inspect',
   'C:\\Users\\DexWiller\\Projects\\pdfocrtickets\\venv\\Lib\\site-packages\\PyInstaller\\hooks\\rthooks\\pyi_rth_inspect.py',
   'PYSOURCE'),
  ('pyi_rth_pkgutil',
   'C:\\Users\\DexWiller\\Projects\\pdfocrtickets\\venv\\Lib\\site-packages\\PyInstaller\\hooks\\rthooks\\pyi_rth_pkgutil.py',
   'PYSOURCE'),
  ('pyi_rth_multiprocessing',
   'C:\\Users\\DexWiller\\Projects\\pdfocrtickets\\venv\\Lib\\site-packages\\PyInstaller\\hooks\\rthooks\\pyi_rth_multiprocessing.py',
   'PYSOURCE'),
  ('pyi_rth_setuptools',
   'C:\\Users\\DexWiller\\Projects\\pdfocrtickets\\venv\\Lib\\site-packages\\PyInstaller\\hooks\\rthooks\\pyi_rth_setuptools.py',
   'PYSOURCE'),
  ('pyi_rth_pkgres',
   'C:\\Users\\DexWiller\\Projects\\pdfocrtickets\\venv\\Lib\\site-packages\\PyInstaller\\hooks\\rthooks\\pyi_rth_pkgres.py',
   'PYSOURCE'),
  ('rest',
   'C:\\Users\\DexWiller\\Projects\\pdfocrtickets\\rest.py',
   'PYSOURCE')],
 True,
 False,
 False,
 [],
 None,
 None,
 None)
